\relax 
\@writefile{toc}{\contentsline {section}{\numberline {1}Theory}{1}{}\protected@file@percent }
\@writefile{toc}{\contentsline {subsection}{\numberline {1.1}Waves}{1}{}\protected@file@percent }
\@writefile{toc}{\contentsline {subsection}{\numberline {1.2}Frequency}{1}{}\protected@file@percent }
\@writefile{toc}{\contentsline {subsubsection}{\numberline {1.2.1}Angle}{1}{}\protected@file@percent }
\@writefile{toc}{\contentsline {subsection}{\numberline {1.3}Oscillators}{1}{}\protected@file@percent }
\@writefile{toc}{\contentsline {subsubsection}{\numberline {1.3.1}Sinusoids}{1}{}\protected@file@percent }
\@writefile{toc}{\contentsline {subsubsection}{\numberline {1.3.2}Triangle}{1}{}\protected@file@percent }
\@writefile{toc}{\contentsline {subsection}{\numberline {1.4}Effects}{1}{}\protected@file@percent }
\@writefile{toc}{\contentsline {subsection}{\numberline {1.5}Filters}{1}{}\protected@file@percent }
\@writefile{toc}{\contentsline {subsection}{\numberline {1.6}System}{1}{}\protected@file@percent }
\@writefile{toc}{\contentsline {section}{\numberline {2}Math}{1}{}\protected@file@percent }
\@writefile{toc}{\contentsline {subsection}{\numberline {2.1}Frequency modulation}{1}{}\protected@file@percent }
\@writefile{toc}{\contentsline {subsection}{\numberline {2.2}Amplitude modulation}{2}{}\protected@file@percent }
\@writefile{toc}{\contentsline {subsection}{\numberline {2.3}Demodulation}{2}{}\protected@file@percent }
\@writefile{toc}{\contentsline {subsubsection}{\numberline {2.3.1}Fourier transform}{2}{}\protected@file@percent }
\@writefile{toc}{\contentsline {subsubsection}{\numberline {2.3.2}Hilbert transform}{2}{}\protected@file@percent }
\@writefile{toc}{\contentsline {section}{\numberline {3}Effects}{2}{}\protected@file@percent }
\@writefile{toc}{\contentsline {subsection}{\numberline {3.1}Compressor}{2}{}\protected@file@percent }
\@writefile{lof}{\contentsline {figure}{\numberline {1}{\ignorespaces feed-forward design}}{2}{}\protected@file@percent }
\gdef \@abspage@last{2}
